<svg width="390" height="44" viewBox="0 0 390 44" fill="none" xmlns="http://www.w3.org/2000/svg">
<g clip-path="url(#clip0)">
<path d="M36.3047 29.6138C36.3047 25.1769 34.036 21.3883 29.8036 20.2658C32.2848 18.6255 34.8862 15.5434 34.8862 11.3629C34.8862 3.25351 27.8999 1.07617 19.1024 1.07617H0.5V41.9375H19.5228C29.6372 41.9375 36.3047 38.7393 36.3047 29.6138ZM13.2897 10.6516H17.767C20.4931 10.6516 22.9744 10.7048 22.9744 13.8692C22.9744 16.2401 21.1262 17.4546 18.6033 17.4546H13.2897V10.6516ZM13.2897 32.425V24.8382H17.3327C21.4126 24.8382 24.379 25.0946 24.379 28.6558C24.379 31.7089 22.0041 32.3863 18.876 32.3863L13.2897 32.425Z" fill="white"/>
<path d="M67.7661 41.9328H77.155L78.6105 36.5378H91.3217L92.8603 41.9328H105.567L91.6174 1.08105H78.6105L67.7661 32.7541V32.3863H50.2079V1.08105H37.4367V41.9328H67.7661ZM85.0053 13.3854L89.1084 28.0268H81.0409L85.0053 13.3854Z" fill="white"/>
<path d="M128.988 26.1349C128.489 30.0057 126.563 33.0104 122.427 33.0104C115.931 33.0104 114.739 27.6348 114.739 21.906C114.739 14.0192 117.442 10.0081 121.947 10.0081C125.939 10.0081 128.503 12.4273 128.878 16.6756H140.997C139.971 6.19047 133.304 0.00683594 121.406 0.00683594C110.502 0.00683594 101.949 8.23233 101.949 21.4512C101.949 34.6701 109.748 43.0068 122.649 43.0068C132.93 43.0068 140.129 36.6538 141.265 26.1107L128.988 26.1349Z" fill="white"/>
<path d="M154.323 28.9945L157.372 25.6317L166.734 41.9376H182.06L166.304 16.4482L180.549 1.08105H165.546L154.323 14.3048V1.08105H141.561V41.9376H154.323V28.9945Z" fill="white"/>
<path d="M208.504 29.1057H203.162V23.4833H208.504V17.9093H203.162V8.05811H181.709V34.699H208.508L208.504 29.1057ZM197.793 29.1057H187.078V23.4833H197.798L197.793 29.1057ZM197.798 17.9093H187.078V13.6756H197.798V17.9093Z" fill="white"/>
<path d="M226.746 41.9327L236.241 10.5452L245.944 41.9327H249.858L264.006 1.41492H259.283C257.435 6.81471 255.587 12.2677 253.697 17.7208C251.807 23.1738 249.922 28.6558 248.032 34.0508L238.292 1.41492H234.351C232.84 6.41795 231.579 10.6565 230.548 14.0483C229.518 17.4401 228.631 20.3771 227.901 22.806C227.171 25.235 226.556 27.272 226.052 28.9945C225.549 30.717 225.059 32.3283 224.597 33.8766L213.115 1.41492H208.397L222.721 41.9327H226.746Z" fill="white"/>
<path d="M272.346 23.9382H300.563V41.9375H304.884V1.41968H300.563V19.4142H272.346V1.41968H267.947V41.9375H272.346V23.9382Z" fill="white"/>
<path d="M313.224 1.41492H308.825V41.9327H313.224V1.41492Z" fill="white"/>
<path d="M331.785 41.9376H336.262V5.93894H351.376V4.66641V1.41492H317.161V4.66641V5.93894H331.785V41.9376Z" fill="white"/>
<path d="M389.5 38.686V37.3845H359.711V23.9382H386.908V23.2898V20.0916V19.4142H359.711V5.93886H389.5V4.66633V1.41968H355.312V5.93886V19.4142V23.9382V37.3845V41.9327H389.5V38.686Z" fill="white"/>
</g>
<defs>
<clipPath id="clip0">
<rect width="389" height="43" fill="white" transform="translate(0.5 0.00683594)"/>
</clipPath>
</defs>
</svg>
