<svg width="137" height="142" viewBox="0 0 137 142" fill="none" xmlns="http://www.w3.org/2000/svg">
<g clip-path="url(#clip0)">
<path d="M25.0304 71.1592V97.7837C23.8951 95.5435 22.416 93.8587 20.5933 92.7293C18.7521 91.5906 16.6026 91.0259 14.1239 91.0259C9.85246 91.0259 6.43098 92.4977 3.85951 95.4413C1.28804 98.3848 0.00153429 102.335 0 107.291C0 112.187 1.31872 116.14 3.94236 119.117C6.566 122.094 10.0182 123.588 14.3149 123.588C16.5283 123.611 18.7036 123.007 20.5933 121.843C22.4636 120.672 23.9871 119.001 25.1639 116.832V122.303H30.1304V71.1592H25.0304ZM22.4989 115.603C20.7244 117.581 18.2596 118.573 15.1343 118.573C12.1125 118.573 9.73508 117.53 8.01131 115.424C6.28753 113.319 5.43369 110.407 5.43369 106.691C5.43369 103.396 6.28446 100.813 7.98599 98.941C9.68752 97.0695 12.0465 96.1353 15.0629 96.1384C18.0916 96.1384 20.5334 97.1664 22.3884 99.2222C24.2433 101.278 25.1685 103.989 25.1639 107.356C25.1639 110.869 24.2756 113.637 22.5012 115.603H22.4989ZM56.9606 91.2374C56.3762 91.1422 55.785 91.0955 55.1931 91.098C52.9684 91.098 51.0858 91.6565 49.5454 92.7735C48.0049 93.8905 46.5435 95.7635 45.1611 98.3926V92.1181H40.625V122.303H45.6881V107.595C45.6881 103.635 46.364 100.671 47.7157 98.7017C49.0644 96.7426 51.0873 95.7503 53.7984 95.7503C54.2978 95.7553 54.7959 95.8027 55.2874 95.8921C55.8551 96.0031 56.4142 96.1545 56.9606 96.3453L58.659 91.6813C58.1038 91.4937 57.5362 91.3454 56.9606 91.2374ZM69.4873 74.9215C69.1504 74.5603 68.7428 74.2738 68.2903 74.0802C67.8378 73.8865 67.3504 73.79 66.8591 73.7968C66.3629 73.7878 65.8702 73.8814 65.4111 74.0716C64.9521 74.2618 64.5363 74.5447 64.1894 74.9029C63.4877 75.6142 63.0937 76.5772 63.0937 77.5812C63.0937 78.5851 63.4877 79.5482 64.1894 80.2594C64.5373 80.6154 64.9536 80.8959 65.4126 81.0837C65.8717 81.2715 66.3639 81.3627 66.8591 81.3517C67.3503 81.3638 67.8387 81.273 68.2934 81.0851C68.7482 80.8971 69.1594 80.616 69.5011 80.2594C69.8505 79.9196 70.1266 79.5105 70.3119 79.0578C70.4973 78.6051 70.588 78.1186 70.5782 77.6288C70.5869 77.1266 70.4947 76.6277 70.3073 76.1624C70.1198 75.6971 69.8408 75.275 69.4873 74.9215ZM64.2976 92.1181V122.303H69.462V92.1088L64.2976 92.1181ZM99.0355 92.1181L90.0253 113.2L81.0336 92.1088H75.28L90.076 124.178L104.789 92.1088L99.0355 92.1181ZM137.009 107.999V106.975C137.009 102.029 135.718 98.1246 133.136 95.26C130.554 92.3955 127.049 90.9632 122.621 90.9632C118.237 90.9632 114.655 92.4667 111.873 95.4738C109.091 98.4809 107.696 102.354 107.687 107.093C107.687 112.027 109.093 116.01 111.905 119.04C114.717 122.07 118.4 123.589 122.952 123.595C126.031 123.595 128.731 122.898 131.062 121.503C133.394 120.109 135.308 118.066 136.802 115.329L132.917 112.708C131.676 114.901 130.248 116.546 128.634 117.641C127.033 118.724 125.144 119.291 123.217 119.268C120.271 119.268 117.882 118.272 116.05 116.279C114.218 114.287 113.306 111.679 113.314 108.455V107.99L137.009 107.999ZM116.2 97.7489C117.845 96.2384 119.926 95.4831 122.413 95.4831C125.157 95.4831 127.325 96.2058 128.89 97.6466C130.455 99.0874 131.348 101.132 131.525 103.807H113.314C113.565 101.268 114.524 99.2454 116.19 97.7396L116.2 97.7489Z" fill="white"/>
<path d="M78.7092 0H103.217C113.343 0 120.813 1.98303 125.626 5.9491C130.593 10.1088 133.076 16.776 133.076 25.9506C133.076 32.081 131.69 37.2284 128.917 41.3927C126.041 45.7918 121.746 48.6386 116.048 49.9632L136.991 85.925H116.968L98.1333 52.3591H78.7092V37.1958H99.1091C105.16 37.1958 109.318 36.4173 111.624 34.8859C113.93 33.3545 115.072 30.4427 115.072 26.1691C115.072 22.7065 114.441 20.2781 113.159 18.8861C110.973 16.5622 106.283 15.384 99.1206 15.384H78.7092V0Z" fill="white"/>
<path d="M67.683 6.94595C62.0245 2.30596 52.4007 -0.00938967 38.8115 -9.41932e-05H0V85.9342H17.8384V55.7844H39.4973C51.9741 55.7844 60.9827 53.8602 66.5231 50.0119C72.6127 45.7716 75.6544 38.4669 75.6483 28.0978C75.6483 18.3097 72.9932 11.259 67.683 6.94595ZM39.4973 40.6188H17.8384V15.3839H38.5721C44.9402 15.3839 49.451 16.4785 52.1506 18.6373C54.5395 20.5894 55.7355 23.7336 55.7385 28.0699C55.7385 36.4405 50.3248 40.6235 39.4973 40.6188Z" fill="white"/>
<path d="M55.2345 132.969C55.0308 132.969 54.8292 133.011 54.6426 133.094C54.456 133.176 54.2884 133.297 54.1505 133.448C53.9926 133.619 53.8704 133.821 53.7914 134.041C53.7123 134.261 53.6779 134.495 53.6902 134.729C53.6744 135.184 53.8251 135.63 54.1137 135.981C54.2533 136.145 54.4281 136.274 54.6247 136.36C54.8213 136.445 55.0345 136.484 55.2483 136.474C55.4562 136.483 55.6635 136.444 55.8537 136.358C56.0438 136.273 56.2116 136.143 56.3438 135.981C56.6217 135.629 56.7719 135.191 56.7695 134.74C56.7808 134.505 56.746 134.269 56.667 134.048C56.588 133.826 56.4664 133.622 56.3093 133.448C56.1731 133.297 56.0071 133.176 55.822 133.094C55.6369 133.011 55.4368 132.969 55.2345 132.969Z" fill="white"/>
<path d="M65.9385 132.969C65.7233 132.963 65.5092 133.001 65.3091 133.081C65.1089 133.161 64.9269 133.281 64.774 133.434C64.6111 133.604 64.4848 133.806 64.4028 134.028C64.3209 134.249 64.285 134.485 64.2976 134.722C64.2833 134.959 64.3182 135.196 64.4003 135.419C64.4823 135.641 64.6096 135.844 64.774 136.014C65.0875 136.314 65.5062 136.477 65.9385 136.467C66.3656 136.471 66.7779 136.309 67.0892 136.014C67.2545 135.844 67.3829 135.642 67.4662 135.419C67.5494 135.197 67.5856 134.959 67.5725 134.722C67.5838 134.485 67.5468 134.249 67.4636 134.027C67.3805 133.806 67.253 133.604 67.0892 133.434C66.9373 133.284 66.7574 133.165 66.5599 133.086C66.3624 133.006 66.1512 132.966 65.9385 132.969Z" fill="white"/>
<path d="M95.8227 132.969C95.62 132.967 95.4189 133.007 95.2323 133.087C95.0457 133.167 94.8776 133.285 94.7387 133.434C94.5856 133.607 94.4678 133.808 94.392 134.027C94.3162 134.245 94.2838 134.477 94.2968 134.708C94.2773 135.168 94.4237 135.619 94.7088 135.979C94.8438 136.143 95.0148 136.272 95.2082 136.358C95.4015 136.443 95.6119 136.482 95.8227 136.472C96.0365 136.481 96.2497 136.441 96.4454 136.354C96.6411 136.266 96.814 136.134 96.9504 135.967C97.2282 135.61 97.3783 135.168 97.3762 134.714C97.3741 134.26 97.22 133.819 96.9389 133.464C96.7987 133.306 96.6265 133.18 96.434 133.095C96.2414 133.009 96.033 132.967 95.8227 132.969Z" fill="white"/>
<path d="M77.2823 135.017C77.1944 134.972 77.1006 134.94 77.0038 134.921C76.8569 134.898 76.7084 134.886 76.5596 134.884H75.7932V136.337H76.5481C76.702 136.341 76.8559 136.332 77.0084 136.311C77.1003 136.295 77.1885 136.262 77.2685 136.214C77.3654 136.16 77.4452 136.079 77.4986 135.981C77.5509 135.869 77.5769 135.747 77.5746 135.623C77.5797 135.506 77.556 135.39 77.5055 135.284C77.4538 135.178 77.3772 135.086 77.2823 135.017Z" fill="white"/>
<path d="M49.4809 132.969C49.1409 132.963 48.8115 133.089 48.5603 133.32C48.3136 133.552 48.1514 133.86 48.1 134.196H50.8387C50.7805 133.855 50.6084 133.543 50.3508 133.313C50.1152 133.091 49.8038 132.967 49.4809 132.969Z" fill="white"/>
<path d="M9.04235 132.969C8.83774 132.97 8.63534 133.012 8.44768 133.094C8.26003 133.177 8.09113 133.297 7.95147 133.448C7.79494 133.62 7.67369 133.822 7.59469 134.042C7.5157 134.262 7.48052 134.495 7.49118 134.729C7.479 135.184 7.6302 135.629 7.91695 135.981C8.05894 136.146 8.23642 136.277 8.43584 136.362C8.63527 136.447 8.85137 136.486 9.06767 136.474C9.27553 136.483 9.48258 136.443 9.67263 136.357C9.86267 136.272 10.0306 136.143 10.1632 135.981C10.4408 135.629 10.5888 135.19 10.582 134.74C10.5949 134.505 10.5608 134.269 10.4817 134.047C10.4026 133.825 10.2802 133.621 10.1217 133.448C9.9857 133.296 9.81911 133.174 9.63302 133.092C9.44693 133.009 9.24559 132.967 9.04235 132.969Z" fill="white"/>
<path d="M106.425 133.302C106.209 133.444 106.032 133.64 105.912 133.871C105.785 134.132 105.722 134.419 105.728 134.71C105.723 134.987 105.779 135.261 105.891 135.514C106.002 135.742 106.171 135.937 106.379 136.079C106.558 136.208 106.761 136.302 106.975 136.353C107.201 136.411 107.434 136.434 107.666 136.423V133.007C107.434 132.999 107.202 133.021 106.975 133.072C106.781 133.116 106.595 133.194 106.425 133.302Z" fill="white"/>
<path d="M24.5425 134.875C24.5504 135.166 24.5003 135.455 24.3953 135.726C24.3069 135.955 24.1638 136.16 23.9787 136.32H26.2019V133.109H24.5425V134.875Z" fill="white"/>
<path d="M30.86 135.017C30.7725 134.971 30.6786 134.939 30.5815 134.921C30.4346 134.898 30.2861 134.886 30.1373 134.884H29.3778V136.337H30.1235C30.2774 136.341 30.4313 136.332 30.5838 136.311C30.6769 136.294 30.7665 136.261 30.8485 136.214C30.9448 136.159 31.0244 136.078 31.0786 135.981C31.1353 135.871 31.1638 135.748 31.1614 135.623C31.1636 135.505 31.1367 135.389 31.0832 135.284C31.0317 135.178 30.955 135.086 30.86 135.017Z" fill="white"/>
<path d="M14.6049 132.969C14.2723 132.966 13.951 133.092 13.7074 133.32C13.4572 133.551 13.2898 133.859 13.231 134.196H15.9743C15.9131 133.856 15.7415 133.545 15.4864 133.313C15.2472 133.089 14.9316 132.966 14.6049 132.969Z" fill="white"/>
<path d="M0 127.22V142H137V127.22H0ZM100.734 130.065C100.786 130.261 100.901 130.435 101.063 130.557C101.245 130.69 101.467 130.757 101.691 130.748C101.914 130.761 102.133 130.695 102.313 130.562C102.476 130.438 102.594 130.263 102.649 130.065L103.318 130.327C103.209 130.657 102.996 130.942 102.711 131.138C102.41 131.341 102.053 131.442 101.691 131.426C101.327 131.438 100.968 131.335 100.665 131.131C100.38 130.939 100.168 130.656 100.062 130.327L100.734 130.065ZM6.61663 130.297H4.79159V137.073H3.96077V130.295H2.14264V129.5H6.61663V130.297ZM10.7914 136.481C10.5924 136.719 10.3421 136.907 10.0597 137.033C9.77726 137.158 9.47022 137.216 9.16202 137.203C8.85198 137.206 8.54504 137.141 8.26216 137.013C7.97268 136.878 7.72226 136.671 7.53491 136.411V139.725H6.7225V132.36H7.53491V133.013C7.723 132.779 7.95834 132.587 8.22534 132.451C8.50305 132.311 8.81021 132.241 9.1206 132.247C9.4338 132.235 9.74557 132.295 10.032 132.424C10.3184 132.552 10.5719 132.745 10.773 132.988C11.1809 133.478 11.3992 134.1 11.3875 134.74C11.4075 135.375 11.1953 135.994 10.7914 136.481ZM13.6038 136.039C13.7408 136.182 13.9057 136.294 14.0879 136.369C14.2702 136.444 14.4658 136.479 14.6625 136.474C14.835 136.476 15.0066 136.45 15.1711 136.397C15.3342 136.341 15.4846 136.253 15.613 136.137C15.7138 136.05 15.8035 135.951 15.8799 135.842C15.9652 135.727 16.0421 135.607 16.1101 135.481L16.7821 135.86C16.7077 136.004 16.6206 136.141 16.522 136.269C16.4324 136.397 16.3281 136.513 16.2113 136.615C16.0014 136.809 15.7558 136.959 15.4887 137.057C15.2227 137.152 14.9423 137.199 14.6602 137.196C14.3484 137.212 14.037 137.16 13.747 137.043C13.4571 136.927 13.1955 136.748 12.9801 136.52C12.5468 136.031 12.3219 135.389 12.3541 134.733C12.3305 134.082 12.5498 133.445 12.9686 132.948C13.1741 132.716 13.4285 132.532 13.7132 132.412C13.9979 132.291 14.3057 132.236 14.6141 132.251C14.9674 132.253 15.3162 132.332 15.636 132.484C15.9327 132.624 16.1881 132.841 16.377 133.111C16.5297 133.36 16.6409 133.632 16.7061 133.917C16.786 134.231 16.8246 134.554 16.8212 134.877H13.1803C13.17 135.09 13.2021 135.302 13.2749 135.502C13.3476 135.701 13.4595 135.884 13.6038 136.039ZM21.8637 137.071H21.0559V135.035H18.8511V137.071H18.0479V132.36H18.8511V134.287H21.0559V132.36H21.8637V137.071ZM27.7047 138.317H26.9636V137.071H23.4148V138.317H22.6738V136.32C22.8571 136.323 23.0358 136.263 23.1801 136.148C23.3332 136.032 23.4569 135.881 23.5414 135.707C23.611 135.548 23.6561 135.38 23.6749 135.207C23.7099 134.959 23.7283 134.709 23.7301 134.459V132.367H27.0143V136.318H27.7047V138.317ZM31.8634 136.225C31.7969 136.401 31.6923 136.56 31.5573 136.69C31.4094 136.83 31.2325 136.934 31.0395 136.997C30.7617 137.065 30.4761 137.096 30.1903 137.087H28.5608V132.36H29.3733V134.166H30.2018C30.4908 134.159 30.7794 134.195 31.0579 134.273C31.2704 134.344 31.4619 134.468 31.6149 134.633C31.7319 134.76 31.8206 134.91 31.8749 135.075C31.9392 135.249 31.9734 135.433 31.9762 135.619C31.9801 135.824 31.9433 136.028 31.868 136.218L31.8634 136.225ZM33.3455 137.078H32.54V132.36H33.3455V137.078ZM35.7851 137.027C35.7336 137.079 35.6723 137.121 35.6047 137.149C35.5372 137.178 35.4647 137.192 35.3915 137.192C35.2425 137.192 35.0995 137.132 34.9934 137.027C34.9409 136.974 34.8997 136.911 34.8724 136.841C34.8451 136.772 34.8322 136.697 34.8346 136.622C34.8329 136.55 34.8461 136.478 34.8734 136.41C34.9007 136.343 34.9416 136.282 34.9934 136.232C35.0981 136.123 35.2409 136.058 35.3915 136.053C35.4653 136.053 35.5382 136.068 35.6059 136.098C35.6736 136.128 35.7345 136.171 35.7851 136.225C35.89 136.331 35.951 136.473 35.9554 136.622C35.9569 136.697 35.9429 136.77 35.9144 136.839C35.8858 136.907 35.8433 136.969 35.7897 137.02L35.7851 137.027ZM45.771 137.078H44.9356V130.295H41.0991V137.071H40.2752V129.5H45.7986L45.771 137.078ZM48.4637 136.046C48.6007 136.189 48.7656 136.301 48.9478 136.376C49.13 136.451 49.3257 136.486 49.5223 136.481C49.6964 136.483 49.8697 136.457 50.0356 136.404C50.1982 136.346 50.3488 136.257 50.4797 136.144C50.5791 136.055 50.6686 135.956 50.7467 135.849C50.8278 135.737 50.8994 135.619 50.9607 135.495L51.6512 135.874C51.5742 136.017 51.4873 136.153 51.3911 136.283C51.2991 136.411 51.1925 136.527 51.0735 136.629C50.866 136.823 50.6228 136.973 50.3578 137.071C50.0893 137.166 49.8067 137.213 49.5223 137.21C49.2107 137.226 48.8995 137.173 48.6096 137.056C48.3198 136.94 48.0582 136.762 47.8423 136.534C47.4105 136.044 47.1872 135.402 47.2209 134.747C47.198 134.096 47.4154 133.46 47.8308 132.962C48.0363 132.73 48.2907 132.546 48.5754 132.426C48.8601 132.305 49.1679 132.25 49.4763 132.265C49.8296 132.267 50.1784 132.346 50.4981 132.498C50.7957 132.64 51.0529 132.856 51.2461 133.125C51.3935 133.376 51.5021 133.648 51.5683 133.931C51.6481 134.245 51.6868 134.568 51.6834 134.891H48.0448C48.0363 135.101 48.0694 135.311 48.1421 135.508C48.2148 135.705 48.3257 135.886 48.4683 136.039L48.4637 136.046ZM56.979 136.488C56.7827 136.724 56.5355 136.912 56.2563 137.037C55.9771 137.162 55.6733 137.222 55.368 137.21C55.0557 137.214 54.7464 137.149 54.4612 137.02C54.173 136.885 53.924 136.678 53.7386 136.418V139.732H52.9285V132.36H53.7386V133.013C53.9248 132.777 54.1606 132.585 54.429 132.451C54.7085 132.312 55.0171 132.241 55.3289 132.247C55.6413 132.235 55.9522 132.296 56.2377 132.425C56.5233 132.553 56.7761 132.746 56.9767 132.988C57.3861 133.477 57.606 134.1 57.5958 134.74C57.6105 135.379 57.388 136 56.9721 136.481L56.979 136.488ZM62.5255 136.72C62.3185 136.882 62.0847 137.005 61.835 137.085C61.5807 137.167 61.315 137.208 61.0479 137.206C60.7193 137.215 60.3921 137.158 60.0855 137.039C59.7788 136.919 59.4989 136.739 59.262 136.509C59.0284 136.282 58.8449 136.007 58.7235 135.704C58.6021 135.4 58.5457 135.074 58.5578 134.747C58.5438 134.418 58.598 134.089 58.7168 133.781C58.8357 133.474 59.0167 133.195 59.2482 132.962C59.4862 132.73 59.7683 132.548 60.0776 132.428C60.3868 132.308 60.7169 132.253 61.0479 132.265C61.3063 132.268 61.5629 132.309 61.8097 132.386C62.057 132.456 62.2906 132.568 62.5001 132.718V133.692C62.3204 133.472 62.0929 133.296 61.835 133.178C61.589 133.055 61.3182 132.99 61.0433 132.988C60.8251 132.982 60.6078 133.02 60.4043 133.1C60.2008 133.179 60.0151 133.3 59.8581 133.453C59.6967 133.623 59.5723 133.826 59.4931 134.047C59.4138 134.269 59.3813 134.505 59.3978 134.74C59.384 134.979 59.4196 135.217 59.5025 135.441C59.5853 135.665 59.7135 135.868 59.8788 136.039C60.0309 136.188 60.2112 136.304 60.409 136.381C60.6067 136.458 60.8178 136.493 61.0295 136.485C61.3158 136.486 61.5982 136.419 61.8534 136.288C62.1171 136.163 62.3493 135.98 62.5324 135.751L62.5255 136.72ZM67.7083 136.504C67.2261 136.954 66.5938 137.204 65.9373 137.204C65.2809 137.204 64.6486 136.954 64.1664 136.504C63.9346 136.273 63.7534 135.995 63.6344 135.689C63.5155 135.383 63.4615 135.055 63.476 134.726C63.4658 134.4 63.5218 134.075 63.6405 133.771C63.7592 133.467 63.9382 133.191 64.1664 132.96C64.3992 132.725 64.677 132.54 64.9829 132.417C65.2888 132.294 65.6163 132.235 65.9454 132.244C66.2715 132.234 66.5961 132.292 66.8995 132.413C67.2029 132.534 67.4787 132.716 67.71 132.948C67.9414 133.181 68.1234 133.458 68.2449 133.764C68.3665 134.069 68.4251 134.397 68.4171 134.726C68.428 135.056 68.3699 135.385 68.2465 135.691C68.1232 135.997 67.9375 136.273 67.7014 136.502L67.7083 136.504ZM73.4619 137.073H72.6564V135.038H70.4516V137.073H69.6415V132.36H70.4516V134.287H72.6564V132.36H73.4619V137.073ZM78.2949 136.22C78.2266 136.395 78.1232 136.553 77.9911 136.685C77.841 136.823 77.6638 136.928 77.471 136.992C77.1932 137.06 76.9076 137.091 76.6218 137.083H74.9808V132.36H75.7933V134.166H76.6379C76.9247 134.158 77.211 134.194 77.4871 134.273C77.7019 134.344 77.8958 134.467 78.051 134.633C78.1664 134.761 78.2549 134.911 78.311 135.075C78.3733 135.249 78.4075 135.433 78.4123 135.619C78.4118 135.825 78.3703 136.029 78.2903 136.218L78.2949 136.22ZM79.777 137.073H78.9715V132.36H79.777V137.073ZM82.2166 137.022C82.1378 137.101 82.0375 137.155 81.9285 137.176C81.8194 137.198 81.7065 137.186 81.604 137.143C81.5015 137.1 81.4141 137.027 81.3527 136.933C81.2913 136.84 81.2587 136.73 81.2592 136.618C81.2588 136.545 81.2733 136.472 81.3018 136.405C81.3303 136.338 81.3722 136.278 81.4249 136.227C81.4761 136.172 81.5377 136.128 81.606 136.097C81.6744 136.067 81.7482 136.05 81.823 136.048C81.8958 136.048 81.9679 136.063 82.0346 136.093C82.1012 136.122 82.1609 136.166 82.2097 136.22C82.2639 136.271 82.3075 136.333 82.3379 136.401C82.3684 136.469 82.385 136.543 82.3869 136.618C82.3879 136.694 82.3728 136.769 82.3426 136.838C82.3124 136.907 82.2679 136.969 82.212 137.02L82.2166 137.022ZM92.0184 137.073H91.1899V130.295H88.2832V134.357C88.307 134.877 88.2487 135.398 88.1105 135.9C88.0128 136.2 87.8381 136.47 87.6042 136.681C87.4394 136.836 87.2431 136.953 87.0289 137.024C86.8012 137.098 86.5636 137.134 86.3246 137.134C86.2545 137.132 86.1846 137.125 86.1152 137.115C86.0323 137.097 85.9518 137.083 85.8736 137.071V136.276C85.9419 136.297 86.012 136.312 86.083 136.32C86.152 136.334 86.2221 136.341 86.2924 136.341C86.4268 136.341 86.5599 136.316 86.686 136.269C86.8125 136.216 86.9269 136.137 87.022 136.037C87.1797 135.874 87.2896 135.671 87.3396 135.449C87.4283 134.972 87.4661 134.486 87.4523 134.001V129.5H92.0138L92.0184 137.073ZM98.1471 137.073H97.337V136.411C97.1503 136.651 96.9149 136.847 96.6466 136.987C96.3664 137.126 96.0589 137.2 95.7467 137.203C95.4487 137.21 95.1525 137.155 94.8757 137.044C94.5989 136.932 94.3473 136.765 94.1357 136.553C93.6984 136.116 93.4821 135.502 93.4821 134.71C93.4582 134.378 93.5042 134.045 93.6168 133.733C93.7294 133.421 93.9063 133.136 94.1357 132.897C94.347 132.685 94.5986 132.518 94.8755 132.406C95.1523 132.294 95.4486 132.24 95.7467 132.247C96.0533 132.241 96.3569 132.309 96.6328 132.444C96.9097 132.582 97.1527 132.78 97.3439 133.025V132.36H98.154L98.1471 137.073ZM103.671 137.073H102.851V133.929L99.6523 137.396V132.36H100.462V135.463L103.661 131.996L103.671 137.073ZM111.06 135.753C110.92 136.056 110.714 136.323 110.458 136.534C110.199 136.746 109.902 136.904 109.583 136.999C109.227 137.103 108.858 137.155 108.487 137.152V139.729H107.682V137.148C107.309 137.151 106.938 137.1 106.58 136.994C106.262 136.9 105.967 136.742 105.712 136.53C105.452 136.322 105.245 136.054 105.109 135.749C104.967 135.421 104.898 135.065 104.906 134.708C104.902 134.361 104.969 134.017 105.102 133.697C105.234 133.382 105.441 133.105 105.705 132.89C105.958 132.678 106.25 132.52 106.566 132.426C106.928 132.32 107.304 132.268 107.682 132.272V129.484H108.487V132.272C108.863 132.269 109.236 132.321 109.597 132.426C109.916 132.521 110.213 132.679 110.471 132.89C110.727 133.111 110.929 133.386 111.065 133.697C111.202 134.016 111.271 134.36 111.268 134.708C111.272 135.067 111.198 135.423 111.051 135.751L111.06 135.753ZM115.762 137.071L114.287 135.151L112.816 137.071H111.822L113.806 134.552L112.115 132.363H113.097L114.308 133.962L115.518 132.363H116.52L114.807 134.552L116.74 137.062L115.762 137.071ZM121.999 137.071H121.187V136.411C121.003 136.653 120.767 136.85 120.496 136.987C120.216 137.127 119.909 137.201 119.597 137.203C119.299 137.21 119.002 137.155 118.726 137.043C118.449 136.932 118.197 136.765 117.986 136.553C117.548 136.116 117.334 135.502 117.334 134.71C117.31 134.379 117.356 134.047 117.466 133.735C117.577 133.423 117.752 133.137 117.979 132.897C118.192 132.685 118.446 132.517 118.724 132.406C119.003 132.294 119.301 132.24 119.601 132.247C119.908 132.241 120.213 132.309 120.489 132.444C120.766 132.582 121.008 132.781 121.198 133.025V132.36H122.011L121.999 137.071ZM126.372 137.071L124.558 135.003L124.312 135.235V137.066H123.502V132.36H124.312V134.32L126.202 132.367H127.189L125.168 134.459L127.435 137.071H126.372ZM132.245 137.071H131.442V133.929L128.248 137.396V132.36H129.053V135.463L132.252 131.996L132.245 137.071ZM134.685 137.02C134.58 137.125 134.437 137.185 134.289 137.185C134.141 137.185 133.998 137.125 133.893 137.02C133.84 136.967 133.798 136.904 133.77 136.835C133.742 136.765 133.728 136.691 133.73 136.615C133.729 136.543 133.743 136.47 133.771 136.403C133.799 136.336 133.841 136.275 133.893 136.225C133.945 136.17 134.007 136.126 134.075 136.095C134.144 136.064 134.218 136.048 134.294 136.046C134.366 136.046 134.438 136.061 134.505 136.09C134.572 136.12 134.631 136.163 134.68 136.218C134.785 136.324 134.848 136.466 134.857 136.615C134.86 136.691 134.846 136.766 134.818 136.836C134.789 136.905 134.746 136.968 134.692 137.02H134.685Z" fill="white"/>
<path d="M109.733 133.302C109.552 133.193 109.356 133.114 109.15 133.069C108.93 133.019 108.704 132.998 108.478 133.004V136.42C108.711 136.433 108.943 136.409 109.169 136.351C109.386 136.296 109.591 136.203 109.776 136.076C109.981 135.932 110.146 135.738 110.257 135.512C110.375 135.261 110.431 134.985 110.423 134.708C110.424 134.416 110.357 134.129 110.227 133.869C110.114 133.64 109.943 133.445 109.733 133.302Z" fill="white"/>
<path d="M119.675 132.969C119.472 132.966 119.271 133.006 119.084 133.086C118.898 133.166 118.729 133.285 118.591 133.434C118.437 133.606 118.319 133.808 118.243 134.026C118.167 134.245 118.134 134.476 118.147 134.708C118.125 135.168 118.271 135.621 118.559 135.979C118.694 136.143 118.866 136.272 119.059 136.358C119.253 136.443 119.464 136.482 119.675 136.471C119.889 136.48 120.103 136.439 120.3 136.352C120.496 136.264 120.671 136.133 120.809 135.967C121.091 135.615 121.239 135.172 121.226 134.719C121.238 134.261 121.083 133.814 120.789 133.464C120.649 133.306 120.477 133.18 120.285 133.094C120.093 133.009 119.885 132.966 119.675 132.969Z" fill="white"/>
</g>
<defs>
<clipPath id="clip0">
<rect width="137" height="142" fill="white"/>
</clipPath>
</defs>
</svg>
