<svg width="50" height="50" viewBox="0 0 50 50" fill="none" xmlns="http://www.w3.org/2000/svg">
<g clip-path="url(#clip0)">
<path d="M28.1397 25C28.1397 27.969 28.1494 30.9379 28.1348 33.9068C28.1299 35.6041 27.0703 36.7984 25.3809 37.0644C23.7842 37.3158 22.0948 36.0199 21.9336 34.4194C21.9092 34.1921 21.9092 33.9649 21.9092 33.7376C21.9092 27.9061 21.9141 22.0746 21.8995 16.2431C21.8946 15.0439 22.3047 14.0768 23.3252 13.4144C24.3067 12.7761 25.376 12.7229 26.4112 13.2403C27.4903 13.777 28.1153 14.6813 28.125 15.8949C28.1494 18.9316 28.1348 21.973 28.1348 25.0097C28.1348 25 28.1348 25 28.1397 25Z" fill="white"/>
<path d="M10.8252 18.627C10.8252 16.8331 10.8252 15.044 10.8252 13.25C10.8252 11.5093 12.1094 10.1651 13.8086 10.1167C15.5957 10.0683 17.0166 11.3304 17.0361 13.1098C17.0752 16.8331 17.0703 20.5564 17.0361 24.2845C17.0215 25.9817 15.6397 27.2292 13.9258 27.2292C12.207 27.2292 10.874 25.9817 10.8399 24.2651C10.8008 22.3841 10.8301 20.508 10.8301 18.627C10.8301 18.627 10.8301 18.627 10.8252 18.627Z" fill="white"/>
<path d="M39.209 31.3344C39.209 33.1961 39.2285 35.0577 39.2041 36.9193C39.1846 38.2152 38.3789 39.279 37.1533 39.719C35.9717 40.1446 34.5996 39.7964 33.7549 38.8487C33.2813 38.3168 32.9981 37.6978 32.9932 36.987C32.9834 33.2106 32.9639 29.4341 33.003 25.6577C33.0176 24.0136 34.4385 22.7613 36.1182 22.7709C37.793 22.7758 39.1651 24.0426 39.1992 25.6964C39.2383 27.5773 39.209 29.4583 39.209 31.3344Z" fill="white"/>
<path d="M49.9707 25.0339C49.9707 25.7544 50.0439 26.4797 49.956 27.1856C49.751 28.791 48.3301 29.85 46.6162 29.7581C45.1416 29.6807 43.8477 28.3993 43.7939 26.8907C43.75 25.648 43.7549 24.3956 43.7891 23.1529C43.833 21.6201 45.1269 20.329 46.626 20.2517C48.3447 20.1598 49.751 21.2091 49.9609 22.8241C50.0488 23.5543 49.9707 24.2989 49.9707 25.0339Z" fill="white"/>
<path d="M6.26956 25.0097C6.26956 25.59 6.27933 26.1702 6.26956 26.7456C6.2305 28.3462 4.96097 29.6807 3.42288 29.7581C1.6846 29.8451 0.229523 28.7765 0.0928039 27.1228C-0.0243835 25.7109 -0.0292663 24.2748 0.0976868 22.8677C0.244171 21.2043 1.68948 20.1598 3.43753 20.2517C4.95608 20.3339 6.22073 21.6491 6.26956 23.2158C6.28421 23.8154 6.26956 24.415 6.26956 25.0097Z" fill="white"/>
<path d="M28.125 5.0685C28.125 5.6826 28.1494 6.29669 28.1201 6.91079C28.0469 8.55966 26.6895 9.81687 25.0098 9.81203C23.335 9.81203 21.9678 8.54032 21.919 6.89145C21.8799 5.64391 21.8799 4.39638 21.919 3.15368C21.9727 1.51931 23.3741 0.233093 25.0244 0.237929C26.6846 0.247599 28.0518 1.52898 28.1201 3.16818C28.1494 3.80646 28.1299 4.4399 28.125 5.0685C28.1299 5.0685 28.1299 5.0685 28.125 5.0685Z" fill="white"/>
<path d="M28.125 44.9703C28.125 45.6038 28.1495 46.2372 28.1202 46.8658C28.042 48.4567 26.6358 49.7525 25.0196 49.7574C23.4034 49.7574 21.9824 48.4663 21.9239 46.8706C21.8799 45.6086 21.8799 44.3417 21.919 43.0797C21.9727 41.4453 23.3741 40.1736 25.0391 40.1881C26.6846 40.1978 28.042 41.4647 28.1153 43.0748C28.1495 43.7083 28.125 44.3417 28.125 44.9703Z" fill="white"/>
<path d="M39.2042 14.9279C39.2042 15.542 39.2286 16.156 39.1993 16.7701C39.126 18.3852 37.7735 19.6375 36.1182 19.6424C34.4532 19.6472 33.0665 18.4142 33.003 16.8137C32.9542 15.5323 32.9542 14.2509 33.003 12.9695C33.0616 11.3593 34.4483 10.1215 36.1036 10.1215C37.754 10.1215 39.1212 11.3738 39.1993 12.9792C39.2335 13.6271 39.2042 14.2751 39.2042 14.9279Z" fill="white"/>
<path d="M17.0508 35.1446C17.0508 35.7587 17.0704 36.3728 17.046 36.9869C16.9776 38.631 15.6202 39.8882 13.9356 39.8833C12.2559 39.8833 10.8936 38.6261 10.8399 36.9724C10.8008 35.7442 10.8008 34.516 10.8399 33.2878C10.8887 31.6148 12.2706 30.3479 13.9747 30.3624C15.6495 30.3769 16.9874 31.6438 17.046 33.2975C17.0704 33.9164 17.0508 34.5305 17.0508 35.1446Z" fill="white"/>
</g>
<defs>
<clipPath id="clip0">
<rect width="50" height="49.5146" fill="white" transform="translate(0 0.242676)"/>
</clipPath>
</defs>
</svg>
